AWSTATS DATA FILE 7.4 (build 20140726)
# If you remove this file, all statistics for date 201707 will be lost/reset.
# Last config file used to build this data file was /home/davidke/tmp/awstats/awstats.davidke.myweb.jce.ac.il.conf.

# Position (offset in bytes) in this file for beginning of each section for
# direct I/O access. If you made changes somewhere in this file, you should
# also remove completely the MAP section (AWStats will rewrite it at next
# update).
BEGIN_MAP 28
POS_GENERAL 2019                
POS_TIME 2684                
POS_VISITOR 5706                
POS_DAY 5854                
POS_DOMAIN 3167                
POS_LOGIN 3393                
POS_ROBOT 3548                
POS_WORMS 3680                
POS_EMAILSENDER 3811                
POS_EMAILRECEIVER 3954                
POS_SESSION 5933                
POS_SIDER 6070                
POS_FILETYPES 4089                
POS_DOWNLOADS 4217                
POS_OS 4265                
POS_BROWSER 4340                
POS_SCREENSIZE 4415                
POS_UNKNOWNREFERER 4489                
POS_UNKNOWNREFERERBROWSER 4576                
POS_ORIGIN 4658                
POS_SEREFERRALS 4789                
POS_PAGEREFS 4933                
POS_SEARCHWORDS 5081                
POS_KEYWORDS 5233                
POS_MISC 2348                
POS_ERRORS 5292                
POS_CLUSTER 3249                
POS_SIDER_404 5376                
END_MAP

# LastLine    = Date of last record processed - Last record line number in last log - Last record offset in last log - Last record signature value
# FirstTime   = Date of first visit for history file
# LastTime    = Date of last visit for history file
# LastUpdate  = Date of last update - Nb of parsed records - Nb of parsed old records - Nb of parsed new records - Nb of parsed corrupted - Nb of parsed dropped
# TotalVisits = Number of visits
# TotalUnique = Number of unique visitors
# MonthHostsKnown   = Number of hosts known
# MonthHostsUnKnown = Number of hosts unknown
BEGIN_GENERAL 8
LastLine 20170718150340 13 2935 16985934475841
FirstTime 0
LastTime 20170718150339
LastUpdate 20170718151010 13 0 13 0 0
TotalVisits 1                   
TotalUnique 1                   
MonthHostsKnown 0                   
MonthHostsUnknown 1                   
END_GENERAL

# Misc ID - Pages - Hits - Bandwidth
BEGIN_MISC 10
FlashSupport 0 0 0
TotalMisc 0 0 0
RealPlayerSupport 0 0 0
JavaEnabled 0 0 0
PDFSupport 0 0 0
AddToFavourites 0 0 0
JavascriptDisabled 0 0 0
WindowsMediaPlayerSupport 0 0 0
QuickTimeSupport 0 0 0
DirectorSupport 0 0 0
END_MISC

# Hour - Pages - Hits - Bandwidth - Not viewed Pages - Not viewed Hits - Not viewed Bandwidth
BEGIN_TIME 24
0 0 0 0 0 0 0
1 0 0 0 0 0 0
2 0 0 0 0 0 0
3 0 0 0 0 0 0
4 0 0 0 0 0 0
5 0 0 0 0 0 0
6 0 0 0 0 0 0
7 0 0 0 0 0 0
8 0 0 0 0 0 0
9 0 0 0 0 0 0
10 0 0 0 0 0 0
11 0 0 0 0 0 0
12 0 0 0 0 0 0
13 0 0 0 0 0 0
14 0 0 0 0 1 0
15 4 11 553958 0 1 0
16 0 0 0 0 0 0
17 0 0 0 0 0 0
18 0 0 0 2 3 0
19 0 0 0 0 0 0
20 0 0 0 0 0 0
21 0 0 0 0 0 0
22 0 0 0 0 0 0
23 0 0 0 0 0 0
END_TIME

# Domain - Pages - Hits - Bandwidth
# The 25 first Pages must be first (order not required for others)
BEGIN_DOMAIN 1
zz 4 11 553958
END_DOMAIN

# Cluster ID - Pages - Hits - Bandwidth
BEGIN_CLUSTER 0
END_CLUSTER

# Login - Pages - Hits - Bandwidth - Last visit
# The 10 first Pages must be first (order not required for others)
BEGIN_LOGIN 0
END_LOGIN

# Robot ID - Hits - Bandwidth - Last visit - Hits on robots.txt
# The 25 first Hits must be first (order not required for others)
BEGIN_ROBOT 0
END_ROBOT

# Worm ID - Hits - Bandwidth - Last visit
# The 5 first Hits must be first (order not required for others)
BEGIN_WORMS 0
END_WORMS

# EMail - Hits - Bandwidth - Last visit
# The 20 first Hits must be first (order not required for others)
BEGIN_EMAILSENDER 0
END_EMAILSENDER

# EMail - Hits - Bandwidth - Last visit
# The 20 first hits must be first (order not required for others)
BEGIN_EMAILRECEIVER 0
END_EMAILRECEIVER

# Files type - Hits - Bandwidth - Bandwidth without compression - Bandwidth after compression
BEGIN_FILETYPES 4
css 2 147852 0 0
html 3 6041 0 0
js 5 394885 0 0
php 1 5180 0 0
END_FILETYPES

# Downloads - Hits - Bandwidth
BEGIN_DOWNLOADS 0
END_DOWNLOADS

# OS ID - Hits
BEGIN_OS ID - Hits - Pages 1
win7 11 4
END_OS

# Browser ID - Hits - Pages
BEGIN_BROWSER 1
chrome59.0.3071.115 11 4
END_BROWSER

# Screen size - Hits
BEGIN_SCREENSIZE 0
END_SCREENSIZE

# Unknown referer OS - Last visit date
BEGIN_UNKNOWNREFERER 0
END_UNKNOWNREFERER

# Unknown referer Browser - Last visit date
BEGIN_UNKNOWNREFERERBROWSER 0
END_UNKNOWNREFERERBROWSER

# Origin - Pages - Hits 
BEGIN_ORIGIN 6
From0 1 1
From1 0 0
From2 0 0
From3 0 0
From4 3 10
From5 0 0
END_ORIGIN

# Search engine referers ID - Pages - Hits
BEGIN_SEREFERRALS 0
END_SEREFERRALS

# External page referers - Pages - Hits
# The 25 first Pages must be first (order not required for others)
BEGIN_PAGEREFS 0
END_PAGEREFS

# Search keyphrases - Number of search
# The 10 first number of search must be first (order not required for others)
BEGIN_SEARCHWORDS 0
END_SEARCHWORDS

# Search keywords - Number of search
# The 25 first number of search must be first (order not required for others)
BEGIN_KEYWORDS 0
END_KEYWORDS

# Errors - Hits - Bandwidth
BEGIN_ERRORS 1
404 2 0
END_ERRORS

# URL with 404 errors - Hits - Last URL referrer
BEGIN_SIDER_404 2
/deal 1 -
/deals 1 -
END_SIDER_404

# Host - Pages - Hits - Bandwidth - Last visit date - [Start date of last visit] - [Last page of last visit]
# [Start date of last visit] and [Last page of last visit] are saved only if session is not finished
# The 25 first Hits must be first (order not required for others)
BEGIN_VISITOR 1
192.168.5.61 4 11 553958 20170718150339 20170718150326 /basic/web/index.php
END_VISITOR

# Date - Pages - Hits - Bandwidth - Visits
BEGIN_DAY 1
20170718 4 11 553958 1
END_DAY

# Session range - Number of visits
BEGIN_SESSION 0
END_SESSION

# URL - Pages - Bandwidth - Entry - Exit
# The 25 first Pages must be first (order not required for others)
BEGIN_SIDER 4
/basic/ 1 1284 0 0
/basic/web/ 1 4126 0 0
/basic/web/index.php 1 5180 0 0
/ 1 631 1 0
END_SIDER
