AWSTATS DATA FILE 7.4 (build 20140726)
# If you remove this file, all statistics for date 201605 will be lost/reset.
# Last config file used to build this data file was /home/davidke/tmp/awstats/awstats.davidke.myweb.jce.ac.il.conf.

# Position (offset in bytes) in this file for beginning of each section for
# direct I/O access. If you made changes somewhere in this file, you should
# also remove completely the MAP section (AWStats will rewrite it at next
# update).
BEGIN_MAP 28
POS_GENERAL 2019                
POS_TIME 2691                
POS_VISITOR 5885                
POS_DAY 6135                
POS_DOMAIN 3198                
POS_LOGIN 3440                
POS_ROBOT 3595                
POS_WORMS 3727                
POS_EMAILSENDER 3858                
POS_EMAILRECEIVER 4001                
POS_SESSION 6332                
POS_SIDER 6508                
POS_FILETYPES 4136                
POS_DOWNLOADS 4265                
POS_OS 4313                
POS_BROWSER 4391                
POS_SCREENSIZE 4491                
POS_UNKNOWNREFERER 4565                
POS_UNKNOWNREFERERBROWSER 4652                
POS_ORIGIN 4734                
POS_SEREFERRALS 4868                
POS_PAGEREFS 5012                
POS_SEARCHWORDS 5160                
POS_KEYWORDS 5312                
POS_MISC 2355                
POS_ERRORS 5371                
POS_CLUSTER 3296                
POS_SIDER_404 5466                
END_MAP

# LastLine    = Date of last record processed - Last record line number in last log - Last record offset in last log - Last record signature value
# FirstTime   = Date of first visit for history file
# LastTime    = Date of last visit for history file
# LastUpdate  = Date of last update - Nb of parsed records - Nb of parsed old records - Nb of parsed new records - Nb of parsed corrupted - Nb of parsed dropped
# TotalVisits = Number of visits
# TotalUnique = Number of unique visitors
# MonthHostsKnown   = Number of hosts known
# MonthHostsUnKnown = Number of hosts unknown
BEGIN_GENERAL 8
LastLine 20160721155457 1 0 10338905691164
FirstTime 20160506111358
LastTime 20160526123249
LastUpdate 20160722150901 1 0 0 0 0
TotalVisits 9                   
TotalUnique 5                   
MonthHostsKnown 0                   
MonthHostsUnknown 5                   
END_GENERAL

# Misc ID - Pages - Hits - Bandwidth
BEGIN_MISC 10
JavascriptDisabled 0 0 0
FlashSupport 0 0 0
AddToFavourites 0 0 0
PDFSupport 0 0 0
JavaEnabled 0 0 0
WindowsMediaPlayerSupport 0 0 0
TotalMisc 0 0 0
RealPlayerSupport 0 0 0
QuickTimeSupport 0 0 0
DirectorSupport 0 0 0
END_MISC

# Hour - Pages - Hits - Bandwidth - Not viewed Pages - Not viewed Hits - Not viewed Bandwidth
BEGIN_TIME 24
0 0 0 0 0 0 0
1 0 0 0 0 0 0
2 0 0 0 0 0 0
3 0 0 0 0 0 0
4 0 0 0 0 0 0
5 0 0 0 0 0 0
6 0 0 0 0 0 0
7 0 0 0 0 0 0
8 1 1 663 0 1 0
9 3 3 2752 1 2 0
10 1 1 463 0 1 0
11 4 9 498451 0 2 0
12 5 5 3511 1 2 0
13 4 4 4060 4 5 0
14 2 2 1815 24 24 249
15 4 4 2942 4 4 0
16 0 0 0 0 0 0
17 0 0 0 0 0 0
18 0 0 0 0 0 0
19 0 0 0 0 0 0
20 1 1 663 0 0 0
21 0 0 0 0 0 0
22 0 0 0 0 0 0
23 0 0 0 0 0 0
END_TIME

# Domain - Pages - Hits - Bandwidth
# The 25 first Pages must be first (order not required for others)
BEGIN_DOMAIN 2
zz 15 15 12695
il 10 15 502625
END_DOMAIN

# Cluster ID - Pages - Hits - Bandwidth
BEGIN_CLUSTER 0
END_CLUSTER

# Login - Pages - Hits - Bandwidth - Last visit
# The 10 first Pages must be first (order not required for others)
BEGIN_LOGIN 0
END_LOGIN

# Robot ID - Hits - Bandwidth - Last visit - Hits on robots.txt
# The 25 first Hits must be first (order not required for others)
BEGIN_ROBOT 0
END_ROBOT

# Worm ID - Hits - Bandwidth - Last visit
# The 5 first Hits must be first (order not required for others)
BEGIN_WORMS 0
END_WORMS

# EMail - Hits - Bandwidth - Last visit
# The 20 first Hits must be first (order not required for others)
BEGIN_EMAILSENDER 0
END_EMAILSENDER

# EMail - Hits - Bandwidth - Last visit
# The 20 first hits must be first (order not required for others)
BEGIN_EMAILRECEIVER 0
END_EMAILRECEIVER

# Files type - Hits - Bandwidth - Bandwidth without compression - Bandwidth after compression
BEGIN_FILETYPES 4
css 2 148794 0 0
js 3 343379 0 0
md 1 1622 0 0
html 24 21525 0 0
END_FILETYPES

# Downloads - Hits - Bandwidth
BEGIN_DOWNLOADS 0
END_DOWNLOADS

# OS ID - Hits
BEGIN_OS ID - Hits - Pages 1
win8.1 30 25
END_OS

# Browser ID - Hits - Pages
BEGIN_BROWSER 2
chrome50.0.2661.94 10 5
chrome50.0.2661.102 20 20
END_BROWSER

# Screen size - Hits
BEGIN_SCREENSIZE 0
END_SCREENSIZE

# Unknown referer OS - Last visit date
BEGIN_UNKNOWNREFERER 0
END_UNKNOWNREFERER

# Unknown referer Browser - Last visit date
BEGIN_UNKNOWNREFERERBROWSER 0
END_UNKNOWNREFERERBROWSER

# Origin - Pages - Hits 
BEGIN_ORIGIN 6
From0 15 15
From1 0 0
From2 0 0
From3 0 0
From4 10 15
From5 0 0
END_ORIGIN

# Search engine referers ID - Pages - Hits
BEGIN_SEREFERRALS 0
END_SEREFERRALS

# External page referers - Pages - Hits
# The 25 first Pages must be first (order not required for others)
BEGIN_PAGEREFS 0
END_PAGEREFS

# Search keyphrases - Number of search
# The 10 first number of search must be first (order not required for others)
BEGIN_SEARCHWORDS 0
END_SEARCHWORDS

# Search keywords - Number of search
# The 25 first number of search must be first (order not required for others)
BEGIN_KEYWORDS 0
END_KEYWORDS

# Errors - Hits - Bandwidth
BEGIN_ERRORS 2
301 1 249
404 33 0
END_ERRORS

# URL with 404 errors - Hits - Last URL referrer
BEGIN_SIDER_404 4
/ex555/web/ 30 -
/ex_5/ex555/web 1 -
/yiidemo/web/ 1 http://davidke.myweb.jce.ac.il/yiidemo/
/ex_5/ex555/ 1 -
END_SIDER_404

# Host - Pages - Hits - Bandwidth - Last visit date - [Start date of last visit] - [Last page of last visit]
# [Start date of last visit] and [Last page of last visit] are saved only if session is not finished
# The 25 first Hits must be first (order not required for others)
BEGIN_VISITOR 5
87.69.10.117 10 15 502625 20160526123249
10.8.4.206 10 10 8817 20160518154308
10.8.4.79 3 3 2752 20160522092613
10.8.4.88 1 1 663 20160515084323
10.8.4.93 1 1 463 20160508104623
END_VISITOR

# Date - Pages - Hits - Bandwidth - Visits
BEGIN_DAY 7
20160506 3 8 497788 1
20160508 1 1 463 1
20160511 1 1 663 1
20160515 1 1 663 1
20160518 11 11 9480 3
20160522 3 3 2752 1
20160526 5 5 3511 1
END_DAY

# Session range - Number of visits
BEGIN_SESSION 4
30s-2mn 1
30mn-1h 1
0s-30s 6
2mn-5mn 1
END_SESSION

# URL - Pages - Bandwidth - Entry - Exit
# The 25 first Pages must be first (order not required for others)
BEGIN_SIDER 8
/ 15 9409 9 4
/ex555/ 4 4954 0 2
/davidkersenti/web/ 1 4204 0 1
/davidkersenti/ 1 1084 0 0
/ex555/views/ 1 352 0 1
/ex555/LICENSE.md 1 1622 0 0
/yiidemo/ 1 1074 0 1
/ex_2/ 1 448 0 0
END_SIDER
